﻿[
	{"name":"申购", "id":"xz",  "pid": "-1"},
	{"name":"赎回", "id":"rs" ,"pid": "-1"},
	{"name":"红利再投","id":"cw", "pid": "-1"},
	{"name":"红利分红", "id":"yw", "pid": "-1"},
	{"name":"来账分拣", "id":"yw", "pid": "-1"},
	{"name":"放款审批", "id":"sc", "pid": "-1"},	
	{"name":"利息调整", "id":"js", "pid": "-1"},
	{"name":"每日计提", "id":"js", "pid": "-1"},
	{"name":"每日摊销", "id":"js", "pid": "-1"},
	{"name":"提前到期", "id":"js", "pid": "-1"},
	{"name":"交易逾期", "id":"js", "pid": "-1"}
]