﻿[
	{"name":"金融机构理财", "id":"xz",  "pid": "-1"},
	{"name":"再保理", "id":"rs" ,"pid": "-1"},
	{"name":"信用收益权","id":"cw", "pid": "-1"},
	{"name":"固定收益权投资", "id":"yw", "pid": "-1"},
	{"name":"证券投资凭证", "id":"yw", "pid": "-1"},
	{"name":"票据资管", "id":"sc", "pid": "-1"},	
	{"name":"债券投资", "id":"js", "pid": "-1"}
	
]